{
  "collectionName": "components_sections_realizations",
  "info": {
    "name": "realizations",
    "icon": "award"
  },
  "options": {},
  "attributes": {
    "title": {
      "type": "string"
    },
    "img": {
      "model": "file",
      "via": "related",
      "allowedTypes": [
        "images",
        "files",
        "videos"
      ],
      "plugin": "upload",
      "required": false,
      "pluginOptions": {}
    }
  }
}
