{
  "collectionName": "components_sections_website_singles",
  "info": {
    "name": "website_single",
    "icon": "globe-americas"
  },
  "options": {},
  "attributes": {
    "title": {
      "type": "string"
    },
    "description": {
      "type": "text"
    },
    "number": {
      "type": "string"
    }
  }
}
