{
  "routes": [
    {
      "method": "GET",
      "path": "/shops",
      "handler": "shops.find",
      "config": {
        "policies": []
      }
    },
    {
      "method": "PUT",
      "path": "/shops",
      "handler": "shops.update",
      "config": {
        "policies": []
      }
    },
    {
      "method": "DELETE",
      "path": "/shops",
      "handler": "shops.delete",
      "config": {
        "policies": []
      }
    }
  ]
}
