{
  "routes": [
    {
      "method": "GET",
      "path": "/button",
      "handler": "button.find",
      "config": {
        "policies": []
      }
    },
    {
      "method": "PUT",
      "path": "/button",
      "handler": "button.update",
      "config": {
        "policies": []
      }
    },
    {
      "method": "DELETE",
      "path": "/button",
      "handler": "button.delete",
      "config": {
        "policies": []
      }
    }
  ]
}
