{
  "kind": "singleType",
  "collectionName": "dedicated_software",
  "info": {
    "name": "dedicated_software",
    "description": ""
  },
  "options": {
    "increments": true,
    "timestamps": true,
    "draftAndPublish": true
  },
  "pluginOptions": {},
  "attributes": {
    "title": {
      "type": "string"
    },
    "description": {
      "type": "text"
    },
    "software_single": {
      "type": "component",
      "repeatable": true,
      "component": "sections.software-single"
    },
    "img": {
      "model": "file",
      "via": "related",
      "allowedTypes": [
        "images",
        "files",
        "videos"
      ],
      "plugin": "upload",
      "required": false,
      "pluginOptions": {}
    }
  }
}
