<svg width="67" height="67" viewBox="0 0 67 67" fill="none" xmlns="http://www.w3.org/2000/svg">
<g opacity="0.4">
<path d="M59.2465 35.3937C58.644 34.6126 57.9902 33.8312 57.2916 33.0529C57.7718 32.4955 58.2294 31.9371 58.6601 31.3789C63.1114 25.6072 64.3752 20.3714 62.2187 16.6363C60.0622 12.901 54.8966 11.3777 47.6718 12.3468C46.9102 12.449 46.1328 12.5786 45.3429 12.7325C45.0741 11.9467 44.7895 11.1855 44.4883 10.4532C41.7154 3.71235 37.813 0 33.5 0C29.187 0 25.2847 3.71235 22.5119 10.4532C22.2106 11.1855 21.926 11.9467 21.6572 12.7325C20.8674 12.5787 20.0898 12.449 19.3283 12.3468C12.1044 11.3778 6.93805 12.901 4.78149 16.6363C2.62493 20.3715 3.88877 25.6072 8.34008 31.3789C8.77061 31.9371 9.22822 32.4955 9.70861 33.0529C9.00982 33.8312 8.35618 34.6124 7.7537 35.3937C3.30239 41.1654 2.03855 46.4012 4.19511 50.1363C5.92782 53.1374 9.60235 54.7105 14.7272 54.7105C15.9807 54.7105 17.322 54.6163 18.7418 54.4257C19.6563 54.303 20.5935 54.1412 21.5482 53.9443C21.8486 54.8451 22.1696 55.7147 22.5119 56.547C25.2847 63.2877 29.187 67 33.5 67C37.813 67 41.7154 63.2876 44.4881 56.5468C44.8305 55.7146 45.1515 54.845 45.4518 53.9442C46.4065 54.1411 47.3438 54.303 48.2582 54.4256C49.6784 54.6161 51.0189 54.7103 52.2728 54.7103C57.3972 54.7103 61.0725 53.1371 62.8049 50.1362C64.9616 46.401 63.6978 41.1654 59.2465 35.3937ZM51.7086 15.9813C55.297 15.9813 57.8333 16.8922 58.8188 18.599C60.1083 20.8326 58.9174 24.6167 55.5514 28.9813C55.2307 29.3972 54.8929 29.8133 54.5412 30.2293C52.5732 28.357 50.3578 26.5249 47.9477 24.779C47.6148 21.8717 47.1142 19.0936 46.4597 16.5105C48.3812 16.1559 50.1456 15.9813 51.7086 15.9813ZM38.7115 42.9208C36.9469 43.9396 35.2052 44.8535 33.5012 45.6661C31.7961 44.8532 30.0541 43.9402 28.2885 42.9208C26.3407 41.7962 24.4766 40.6059 22.718 39.3696C22.5704 37.4917 22.4906 35.5324 22.4906 33.5C22.4906 31.2233 22.5904 29.0378 22.7741 26.9568C24.3423 25.8799 25.9897 24.8404 27.702 23.8517C29.6702 22.7155 31.6091 21.7113 33.4999 20.831C35.3908 21.7113 37.3297 22.7155 39.2979 23.8517C41.0103 24.8404 42.6576 25.8799 44.2258 26.9568C44.4095 29.0378 44.5093 31.2233 44.5093 33.5C44.5093 35.5324 44.4295 37.4917 44.2819 39.3696C42.5234 40.6059 40.6593 41.7962 38.7115 42.9208ZM43.6831 44.4927C43.4201 46.1638 43.101 47.7467 42.7346 49.2301C41.2786 48.807 39.7615 48.2951 38.1968 47.692C39.0246 47.2524 39.8513 46.7958 40.6744 46.3207C41.6995 45.7287 42.7028 45.1182 43.6831 44.4927ZM28.8029 47.6918C27.238 48.2951 25.7213 48.8065 24.2651 49.2296C23.8989 47.7464 23.5798 46.1637 23.3168 44.4927C24.2971 45.1182 25.3004 45.7287 26.3255 46.3206C27.1486 46.7958 27.9751 47.2524 28.8029 47.6918ZM18.6127 36.2407C17.3695 35.2109 16.2047 34.1616 15.13 33.1026C16.2191 32.0639 17.3927 31.0367 18.6411 30.0295C18.5909 31.1752 18.5648 32.333 18.5648 33.5C18.5648 34.4198 18.5814 35.3337 18.6127 36.2407ZM23.4254 21.8415C23.6894 20.2773 24.0029 18.7947 24.3582 17.4019C25.753 17.7918 27.2066 18.265 28.7064 18.8225C27.7147 19.3401 26.7245 19.8832 25.7393 20.452C24.9549 20.9048 24.1837 21.3687 23.4254 21.8415ZM38.2935 18.8224C39.7933 18.2648 41.2469 17.7915 42.6418 17.4018C42.9971 18.7947 43.3107 20.2773 43.5746 21.8415C42.8163 21.3687 42.0451 20.9048 41.2609 20.452C40.2754 19.883 39.2853 19.34 38.2935 18.8224ZM48.359 30.0295C49.6074 31.0367 50.7809 32.0639 51.8701 33.1026C50.7953 34.1616 49.6305 35.2109 48.3874 36.2407C48.4186 35.3337 48.4353 34.4198 48.4353 33.5C48.4353 32.3329 48.4091 31.1752 48.359 30.0295ZM33.5 3.92578C36.3395 3.92578 39.3558 7.53789 41.5119 13.6482C38.9142 14.3783 36.2214 15.3463 33.5 16.5295C30.7787 15.3463 28.0858 14.3784 25.4881 13.6482C27.6442 7.53789 30.6605 3.92578 33.5 3.92578ZM8.18122 18.5992C9.16685 16.8921 11.702 15.9815 15.2915 15.9815C16.8543 15.9815 18.6188 16.156 20.5405 16.5108C19.8858 19.0938 19.3854 21.872 19.0525 24.7791C16.6423 26.5251 14.427 28.3571 12.459 30.2294C12.1073 29.8134 11.7695 29.3973 11.4488 28.9814C8.08268 24.6169 6.89173 20.8327 8.18122 18.5992ZM14.7051 50.7911C11.1167 50.7908 8.58034 49.8802 7.59484 48.1734C6.30535 45.9399 7.4963 42.1557 10.8623 37.7911C11.3419 37.1692 11.8573 36.5465 12.4055 35.925C14.3512 37.8379 16.5597 39.7142 18.9744 41.506C19.2922 44.5505 19.7913 47.4628 20.4586 50.1659C18.3401 50.586 16.404 50.7912 14.7051 50.7911ZM33.5 63.0742C30.6054 63.0742 27.5275 59.3199 25.3641 52.9927C28.0056 52.2248 30.7408 51.2136 33.5 49.9846C36.2592 51.2136 38.9944 52.2248 41.6359 52.9927C39.4726 59.3199 36.3946 63.0742 33.5 63.0742ZM59.4052 48.1734C57.9532 50.6885 53.136 51.4738 46.5413 50.1659C47.2087 47.4628 47.7077 44.5505 48.0255 41.506C50.4403 39.7142 52.6488 37.8379 54.5944 35.925C55.1426 36.5465 55.658 37.1693 56.1376 37.7911C59.5039 42.1557 60.6948 45.9399 59.4052 48.1734Z" fill="#3C4858"/>
<path d="M33.5 39.5654C36.8498 39.5654 39.5653 36.8498 39.5653 33.5C39.5653 30.1502 36.8498 27.4347 33.5 27.4347C30.1502 27.4347 27.4347 30.1502 27.4347 33.5C27.4347 36.8498 30.1502 39.5654 33.5 39.5654Z" fill="#3C4858"/>
</g>
</svg>
