<svg width="588" height="330" viewBox="0 0 588 330" fill="none" xmlns="http://www.w3.org/2000/svg">
<path d="M69.6442 138.933C107.977 138.933 139.052 107.865 139.052 69.5403C139.052 31.2158 107.977 0.147705 69.6442 0.147705C31.3111 0.147705 0.236084 31.2158 0.236084 69.5403C0.236084 107.865 31.3111 138.933 69.6442 138.933Z" fill="#F0F0F0"/>
<path d="M518.42 138.933C556.753 138.933 587.828 107.865 587.828 69.5403C587.828 31.2158 556.753 0.147705 518.42 0.147705C480.087 0.147705 449.012 31.2158 449.012 69.5403C449.012 107.865 480.087 138.933 518.42 138.933Z" fill="#F0F0F0"/>
<path d="M280.721 138.933C319.054 138.933 350.129 107.865 350.129 69.5403C350.129 31.2158 319.054 0.147705 280.721 0.147705C242.388 0.147705 211.313 31.2158 211.313 69.5403C211.313 107.865 242.388 138.933 280.721 138.933Z" fill="#F0F0F0"/>
<path d="M552.153 99.6158C546.684 96.7342 540.975 94.3322 535.09 92.4367L534.339 84.1381L503.909 80.8603L500.041 91.4673L489.121 95.5646C488.73 95.7128 488.357 95.9065 488.012 96.1417H488C486.212 96.2931 484.49 96.8882 482.99 97.873C481.973 98.5222 481.068 99.3331 480.312 100.274C481.79 101.393 483.324 102.432 484.906 103.425L484.976 103.459C485.426 103.736 485.888 104.013 486.349 104.279C487.181 104.775 488.035 105.248 488.89 105.698L489.432 105.975C490.679 106.622 491.949 107.233 493.253 107.799C493.519 107.914 493.808 108.03 494.073 108.145C494.096 108.157 494.108 108.157 494.13 108.168C494.743 108.422 495.354 108.665 495.977 108.895C498.025 109.677 500.114 110.348 502.235 110.904C507.646 112.346 513.223 113.075 518.824 113.074C520.868 113.074 522.888 112.981 524.885 112.785C529.449 112.364 533.954 111.455 538.323 110.073C538.334 110.073 538.346 110.061 538.357 110.061C541.117 109.182 543.814 108.114 546.427 106.864C546.438 106.853 546.462 106.853 546.473 106.841C547.062 106.564 547.627 106.264 548.205 105.975L548.482 105.837C548.944 105.595 549.406 105.352 549.868 105.098C551.022 104.463 552.153 103.794 553.272 103.078C553.584 102.894 553.885 102.697 554.196 102.49C554.635 102.201 555.073 101.901 555.501 101.589C554.427 100.897 553.308 100.239 552.153 99.6158Z" fill="#6C63FF"/>
<path d="M517.93 75.6137C530.034 75.6137 539.847 65.8035 539.847 53.702C539.847 41.6004 530.034 31.7902 517.93 31.7902C505.826 31.7902 496.013 41.6004 496.013 53.702C496.013 65.8035 505.826 75.6137 517.93 75.6137Z" fill="#A0616A"/>
<path d="M503.215 43.0292C505.484 45.7135 509.324 46.4709 512.866 46.7815C520.059 47.4122 530.518 46.3891 537.548 44.7665C538.049 49.6281 536.681 54.8701 539.545 58.8693C540.888 54.0277 541.669 49.0476 541.872 44.0275C542.086 41.8737 541.805 39.6994 541.05 37.6708C540.646 36.6542 539.965 35.7712 539.085 35.1221C538.204 34.4731 537.159 34.084 536.068 33.9991C537.701 32.7607 539.614 31.9432 541.637 31.6188L534.678 28.1224L536.465 26.2881L523.867 25.5173L527.516 23.1996C522.023 22.4451 516.467 22.2697 510.938 22.6764C508.371 22.8655 505.687 23.2268 503.606 24.714C501.526 26.2012 500.324 29.1571 501.615 31.3406C499.999 31.606 498.476 32.2797 497.193 33.2979C495.909 34.3161 494.907 35.645 494.281 37.1588C493.49 39.5649 493.298 42.128 493.724 44.6249C494.199 48.631 495.13 52.5697 496.5 56.3643L503.215 43.0292Z" fill="#2F2E41"/>
<path d="M284.571 31.969C289.689 31.969 293.838 27.8211 293.838 22.7044C293.838 17.5877 289.689 13.4398 284.571 13.4398C279.453 13.4398 275.304 17.5877 275.304 22.7044C275.304 27.8211 279.453 31.969 284.571 31.969Z" fill="#2F2E41"/>
<path d="M276.532 27.5247C275.36 26.4298 274.493 25.0496 274.014 23.5191C273.536 21.9887 273.463 20.3602 273.802 18.7931C274.142 17.2259 274.882 15.7737 275.952 14.5784C277.021 13.3831 278.382 12.4857 279.902 11.9738C278.629 12.1598 277.408 12.609 276.318 13.2926C275.228 13.9762 274.293 14.8792 273.571 15.9443C272.849 17.0093 272.358 18.213 272.127 19.4786C271.896 20.7441 271.932 22.0438 272.231 23.2949C272.531 24.5459 273.088 25.7209 273.866 26.745C274.645 27.769 275.629 28.6196 276.754 29.2426C277.88 29.8656 279.123 30.2473 280.405 30.3635C281.686 30.4796 282.978 30.3277 284.197 29.9172C282.822 30.1204 281.418 30.0107 280.091 29.5963C278.763 29.182 277.547 28.4736 276.531 27.5239L276.532 27.5247Z" fill="#2F2E41"/>
<path d="M284.758 82.0681C299.792 82.0681 311.98 69.8832 311.98 54.8524C311.98 39.8215 299.792 27.6367 284.758 27.6367C269.724 27.6367 257.536 39.8215 257.536 54.8524C257.536 69.8832 269.724 82.0681 284.758 82.0681Z" fill="#2F2E41"/>
<path d="M260.541 39.8677C265.231 34.5938 271.788 31.348 278.827 30.8155C285.865 30.283 292.836 32.5054 298.267 37.0136C298.045 36.8017 297.823 36.5886 297.593 36.3834C292.216 31.5671 285.145 29.0838 277.936 29.4797C270.727 29.8757 263.971 33.1184 259.153 38.4947C254.336 43.8709 251.852 50.9402 252.248 58.1474C252.644 65.3546 255.888 72.1093 261.265 76.9256C261.317 76.9718 261.369 77.0179 261.421 77.0638C261.652 77.2691 261.889 77.4633 262.126 77.6597C257.011 72.7954 253.987 66.1349 253.692 59.0838C253.396 52.0327 255.852 45.1427 260.542 39.8677H260.541Z" fill="#2F2E41"/>
<path d="M284.527 81.8373C294.21 81.8373 302.059 73.9896 302.059 64.309C302.059 54.6283 294.21 46.7806 284.527 46.7806C274.844 46.7806 266.995 54.6283 266.995 64.309C266.995 73.9896 274.844 81.8373 284.527 81.8373Z" fill="#A0616A"/>
<path d="M315.9 109.979V115.86C314.823 116.548 313.736 117.192 312.626 117.802C312.182 118.046 311.738 118.279 311.294 118.513L311.028 118.646C310.473 118.923 309.929 119.212 309.363 119.478C309.352 119.489 309.329 119.489 309.318 119.5C306.806 120.702 304.214 121.729 301.56 122.574C301.549 122.574 301.538 122.585 301.527 122.585C297.326 123.914 292.995 124.788 288.607 125.193C286.687 125.381 284.745 125.47 282.78 125.47C277.396 125.472 272.034 124.77 266.831 123.384C264.177 122.686 261.573 121.808 259.039 120.754C259.017 120.743 259.006 120.743 258.984 120.732C258.728 120.621 258.451 120.51 258.196 120.399C256.941 119.855 255.72 119.267 254.522 118.646L254 118.379C252.723 117.702 251.469 116.992 250.238 116.227L250.171 116.193C248.274 115.011 246.443 113.726 244.688 112.343C243.789 111.655 242.923 110.933 242.08 110.179C241.636 109.802 241.192 109.402 240.77 109.014C239.149 107.516 237.611 105.931 236.164 104.264C236.355 103.108 236.638 101.969 237.007 100.858L237.018 100.847C237.085 100.657 237.162 100.472 237.251 100.292C237.312 100.132 237.383 99.9768 237.462 99.8257C239.449 96.1083 243.045 95.1873 247.507 94.9875C250.027 94.8765 252.812 94.9986 255.754 94.9653C257.308 94.9542 258.917 94.8988 260.526 94.7545C270.682 93.8335 268.84 87.8412 269.295 84.6121C269.75 81.4829 272.569 84.1905 272.758 84.368L272.769 84.3791C278.516 87.0681 284.874 88.1825 291.193 87.6082C292.281 87.4751 293.369 87.3974 294.456 87.3641C297.32 87.3308 296.699 88.1519 295.711 88.8289C295.232 89.1443 294.731 89.4261 294.213 89.6723C294.213 89.6723 293.757 92.4464 293.291 96.5966C292.847 100.569 306.843 101.945 309.585 102.811H309.596C311.161 103.386 312.557 104.343 313.658 105.595C314.759 106.847 315.53 108.354 315.9 109.979V109.979Z" fill="#6C63FF"/>
<path d="M266.764 63.156C267.528 63.156 268.148 62.0203 268.148 60.6193C268.148 59.2183 267.528 58.0826 266.764 58.0826C266 58.0826 265.38 59.2183 265.38 60.6193C265.38 62.0203 266 63.156 266.764 63.156Z" fill="#A0616A"/>
<path d="M302.291 63.156C303.056 63.156 303.675 62.0203 303.675 60.6193C303.675 59.2183 303.056 58.0826 302.291 58.0826C301.527 58.0826 300.907 59.2183 300.907 60.6193C300.907 62.0203 301.527 63.156 302.291 63.156Z" fill="#A0616A"/>
<path d="M47.4381 74.3996L50.7688 85.9347L93.3321 85.1839L92.9591 64.0488C92.6639 47.3195 80.8382 32.891 64.1056 33.1861C47.3729 33.4812 36.7335 47.6241 37.0287 64.3533L39.4595 86.1341L46.3991 86.0117L47.4381 74.3996Z" fill="#2F2E41"/>
<path d="M66.0075 82.4656C76.5545 82.4656 85.1045 73.9175 85.1045 63.3728C85.1045 52.8281 76.5545 44.28 66.0075 44.28C55.4604 44.28 46.9104 52.8281 46.9104 63.3728C46.9104 73.9175 55.4604 82.4656 66.0075 82.4656Z" fill="#FFB6B6"/>
<path d="M86.9132 49.9663C86.8878 48.5043 86.4301 47.0826 85.5977 45.8803C85.5098 45.7567 85.4215 45.642 85.3331 45.5273C84.6255 44.6245 83.7187 43.8974 82.6836 43.4029C81.6484 42.9085 80.513 42.66 79.3658 42.6768L65.64 42.9239L51.9228 43.1622C49.9577 43.2015 48.0882 44.0175 46.7234 45.4316C45.3586 46.8457 44.6097 48.7428 44.6406 50.7076L47.9067 57.2822L49.7868 61.0594L50.0958 60.8829C61.9679 54.2112 66.8227 54.1229 82.535 60.3269L82.8527 60.4505L84.0974 57.2646L86.9218 50.0369L86.9132 49.9663Z" fill="#2F2E41"/>
<path d="M104.02 93.1471C99.9238 89.0612 86.0656 90.685 86.0656 90.685L49.4869 92.9883C41.3744 93.5884 34.0656 100.084 31.4177 102.713C31.841 103.128 32.274 103.534 32.7158 103.922C40.8446 111.146 51.0626 115.594 61.8893 116.622C72.7159 117.65 83.5889 115.205 92.9325 109.641C96.8519 107.302 101.867 104.499 105.009 101.224C106.254 99.936 107.25 99.9617 108.353 98.5497C107.527 96.33 106.008 94.4355 104.02 93.1471V93.1471Z" fill="#6C63FF"/>
<path d="M69.6442 330C107.977 330 139.052 298.932 139.052 260.607C139.052 222.283 107.977 191.215 69.6442 191.215C31.3111 191.215 0.236084 222.283 0.236084 260.607C0.236084 298.932 31.3111 330 69.6442 330Z" fill="#F0F0F0"/>
<path d="M518.42 330C556.753 330 587.828 298.932 587.828 260.607C587.828 222.283 556.753 191.215 518.42 191.215C480.087 191.215 449.012 222.283 449.012 260.607C449.012 298.932 480.087 330 518.42 330Z" fill="#F0F0F0"/>
<path d="M280.721 330C319.054 330 350.129 298.932 350.129 260.607C350.129 222.283 319.054 191.215 280.721 191.215C242.388 191.215 211.313 222.283 211.313 260.607C211.313 298.932 242.388 330 280.721 330Z" fill="#F0F0F0"/>
<path d="M68.508 270.561C79.1054 270.561 87.6964 261.972 87.6964 251.377C87.6964 240.782 79.1054 232.193 68.508 232.193C57.9105 232.193 49.3196 240.782 49.3196 251.377C49.3196 261.972 57.9105 270.561 68.508 270.561Z" fill="#FFB8B8"/>
<path d="M50.3546 257.379C50.3546 257.379 51.9849 254.517 51.6059 244.954C51.2269 235.392 65.7915 240.8 77.9618 239.888C90.132 238.976 87.5558 255.853 87.5558 255.853C87.5558 255.853 88.4338 254.85 90.3136 246.704C92.1934 238.559 87.9252 230.442 87.9252 230.442C86.6682 221.883 79.8936 224.626 79.8936 224.626C83.1562 225.896 82.5295 228.611 82.5295 228.611C79.7679 223.77 72.9933 226.513 72.9933 226.513C63.958 220.845 54.8008 228.309 54.8008 228.309C43.8857 230.786 50.287 239.465 50.287 239.465C39.31 245.011 50.3546 257.379 50.3546 257.379Z" fill="#2F2E41"/>
<path d="M100.526 296.401C95.0561 293.52 89.347 291.118 83.4625 289.222L82.7115 280.924L52.2808 277.646L48.4134 288.253L37.4926 292.35C37.1016 292.498 36.7294 292.692 36.3837 292.927H36.372C34.584 293.079 32.8621 293.674 31.3622 294.659C30.3449 295.308 29.4404 296.119 28.6843 297.059C30.1619 298.179 31.6965 299.218 33.2783 300.21L33.348 300.245C33.7982 300.522 34.2603 300.799 34.7214 301.064C35.553 301.561 36.4073 302.034 37.2616 302.484L37.8042 302.761C39.0508 303.407 40.3209 304.019 41.6254 304.585C41.8908 304.7 42.1798 304.815 42.4452 304.931C42.4679 304.942 42.4797 304.942 42.5023 304.954C43.1147 305.208 43.7262 305.45 44.3495 305.681C46.3974 306.463 48.4862 307.133 50.6067 307.689C56.0184 309.131 61.5952 309.861 67.1958 309.859C69.2396 309.859 71.2598 309.767 73.2574 309.571C77.8206 309.15 82.3256 308.24 86.6948 306.858C86.7057 306.858 86.7184 306.847 86.7293 306.847C89.4895 305.968 92.1859 304.899 94.7992 303.65C94.8101 303.638 94.8336 303.638 94.8454 303.627C95.4342 303.35 95.9995 303.05 96.5766 302.761L96.8538 302.622C97.3158 302.38 97.7778 302.138 98.2399 301.884C99.394 301.249 100.526 300.58 101.644 299.864C101.956 299.679 102.257 299.483 102.568 299.275C103.007 298.987 103.445 298.687 103.873 298.375C102.799 297.683 101.68 297.025 100.526 296.401Z" fill="#6C63FF"/>
<path d="M307.111 292.343L295.559 291.293L288.646 286.246C288.646 286.236 288.643 286.227 288.637 286.219L288.619 286.228L288.343 286.023L288.307 286.344L276.64 290.829L264.653 288.065L260.505 292.55L242.033 298.677C241.144 299.268 240.363 300.007 239.723 300.861L239.724 300.873C240.499 301.48 241.297 302.078 242.104 302.645C243.935 303.968 245.838 305.188 247.804 306.301C252.587 309.029 257.701 311.129 263.02 312.552C263.502 312.686 263.984 312.811 264.465 312.927C265.304 313.132 266.151 313.328 266.998 313.489C268.711 313.845 270.444 314.125 272.199 314.327C274.776 314.64 277.371 314.794 279.967 314.791C281.743 314.791 283.5 314.722 285.239 314.586C288.294 314.339 291.328 313.878 294.319 313.203C294.426 313.177 294.533 313.159 294.64 313.123C299.22 312.073 303.67 310.524 307.912 308.504C308.563 308.192 309.214 307.871 309.856 307.541C311.436 306.729 312.97 305.855 314.459 304.919C315.583 304.223 316.68 303.483 317.75 302.716C318.41 302.244 319.062 301.762 319.703 301.263L319.634 301.115C318.494 298.687 316.738 296.6 314.541 295.061C312.344 293.522 309.783 292.585 307.111 292.343Z" fill="#6C63FF"/>
<path d="M296.076 234.703C294.728 233.367 293.207 232.219 291.554 231.287C281.341 225.651 270.183 225.553 260.942 231.011C258.645 232.364 256.547 234.03 254.707 235.96C249.523 241.37 246.619 248.567 246.599 256.06V278.282H304.737V253.786C304.737 247.223 301.125 239.625 296.076 234.703Z" fill="#2F2E41"/>
<path d="M274.519 277.676C286.116 277.676 295.517 268.277 295.517 256.683C295.517 245.089 286.116 235.69 274.519 235.69C262.923 235.69 253.522 245.089 253.522 256.683C253.522 268.277 262.923 277.676 274.519 277.676Z" fill="#FFB8B8"/>
<path d="M296.058 237.628C296.015 237.181 295.857 236.753 295.599 236.386C295.341 236.018 294.992 235.724 294.586 235.532C281.448 229.397 268.122 229.557 255.001 236.013H254.761L254.68 236.343C252.094 256.265 252.46 256.702 252.62 256.88C252.873 257.169 253.187 257.397 253.539 257.549C253.862 257.692 254.211 257.765 254.564 257.763H284.516L284.588 257.424C284.935 255.641 285.382 253.879 285.926 252.145C287.119 253.886 288.218 255.69 289.217 257.549L289.341 257.763H295.166C295.277 257.763 295.387 257.754 295.496 257.737C296.098 257.664 296.652 257.376 297.057 256.925C297.217 256.756 297.592 256.345 296.058 237.628Z" fill="#2F2E41"/>
<path d="M534.12 289.649L533.364 281.253L502.539 277.933L498.636 288.675L487.569 292.821C487.168 292.969 486.786 293.165 486.431 293.403C484.221 293.603 482.12 294.456 480.397 295.854C480.649 296.063 480.901 296.263 481.154 296.462C481.206 296.515 481.266 296.558 481.319 296.601C482.023 297.149 482.745 297.688 483.475 298.201C483.666 298.34 483.857 298.479 484.057 298.609C485.66 299.744 487.32 300.797 489.03 301.764C490.664 302.694 492.341 303.551 494.063 304.336C497.224 305.781 500.502 306.959 503.86 307.856C504.329 307.987 504.799 308.108 505.268 308.221C506.085 308.421 506.911 308.612 507.737 308.769C509.406 309.117 511.095 309.389 512.805 309.586C515.317 309.891 517.846 310.041 520.377 310.038C522.107 310.038 523.819 309.971 525.514 309.838C528.492 309.598 531.449 309.148 534.363 308.491C534.468 308.465 534.572 308.447 534.677 308.413C539.14 307.389 543.478 305.88 547.612 303.911C548.246 303.606 548.881 303.294 549.506 302.972C551.046 302.181 552.541 301.329 553.992 300.417C554.514 300.095 555.027 299.765 555.54 299.417C547.655 294.116 536.206 290.318 534.12 289.649Z" fill="#6C63FF"/>
<path d="M516.747 272.616C529.006 272.616 538.944 262.68 538.944 250.424C538.944 238.167 529.006 228.231 516.747 228.231C504.487 228.231 494.549 238.167 494.549 250.424C494.549 262.68 504.487 272.616 516.747 272.616Z" fill="#A0616A"/>
<path d="M501.848 239.612C504.146 242.331 508.034 243.097 511.621 243.409C518.906 244.048 529.499 243.012 536.619 241.369C537.13 246.292 535.742 251.601 538.642 255.652C540.002 250.749 540.793 245.705 540.999 240.62C541.215 238.439 540.93 236.237 540.166 234.182C539.757 233.152 539.068 232.258 538.176 231.601C537.284 230.943 536.226 230.549 535.121 230.463C535.365 230.212 535.532 229.897 535.604 229.554C535.676 229.212 535.65 228.856 535.527 228.528C535.259 227.369 534.669 226.31 533.824 225.474C532.98 224.637 531.915 224.056 530.754 223.799L522.763 221.874C522.763 221.874 515.265 218.586 509.663 218.999C507.063 219.19 504.344 219.556 502.238 221.063C500.131 222.569 498.913 225.562 500.222 227.774C498.584 228.043 497.042 228.725 495.743 229.756C494.443 230.787 493.428 232.133 492.794 233.666C491.992 236.104 491.798 238.7 492.23 241.229C492.71 245.286 493.653 249.275 495.041 253.118L501.848 239.612Z" fill="#2F2E41"/>
<path d="M303.468 50.8953C302.794 48.7385 301.292 46.9369 299.292 45.8856C297.307 44.8558 295.187 44.1106 292.994 43.6721C289.161 42.5694 285.189 42.0258 281.2 42.0582C277.222 42.2536 273.156 43.6262 270.453 46.551C267.751 49.4757 266.749 54.1192 268.718 57.5804L268.5 58.4751C271.655 58.8504 274.852 58.3029 277.703 56.8991C280.553 55.4954 282.936 53.2954 284.562 50.5657C286.054 52.9212 288.173 54.8145 290.681 56.033C293.189 57.2514 295.988 57.7468 298.762 57.4636C299.647 57.3922 300.51 57.1442 301.298 56.7343C302.232 56.1174 302.947 55.219 303.337 54.1692C303.727 53.1195 303.773 51.9728 303.468 50.8953V50.8953Z" fill="#2F2E41"/>
</svg>
