<svg width="347" height="268" viewBox="0 0 347 268" fill="none" xmlns="http://www.w3.org/2000/svg">
<g clip-path="url(#clip0)">
<path d="M15.3889 260.355C26.2048 268.132 40.2215 268.522 53.7702 267.567C55.662 267.434 57.5406 267.277 59.4016 267.109C59.4129 267.106 59.4277 267.107 59.4391 267.104C59.5285 267.095 59.6181 267.087 59.7037 267.082C60.0879 267.046 60.4722 267.01 60.8527 266.974L60.7628 267.145L60.4807 267.676C60.5821 267.499 60.6834 267.325 60.7848 267.147C60.8146 267.093 60.848 267.04 60.8777 266.987C64.3875 260.891 67.8687 254.572 68.7566 247.611C69.6745 240.386 67.095 232.205 60.7237 228.654C59.8882 228.19 59.0033 227.82 58.0855 227.552C57.7045 227.436 57.3183 227.342 56.9277 227.259C54.5383 226.73 52.0506 226.845 49.7205 227.593C47.3904 228.341 45.302 229.695 43.6701 231.516C42.0381 233.336 40.9215 235.558 40.435 237.952C39.9485 240.346 40.1097 242.826 40.9021 245.138C35.5005 239.61 36.5081 230.642 38.3714 223.147C40.2383 215.653 42.4984 207.313 38.7012 200.581C36.5905 196.834 32.8786 194.51 28.7129 193.573C28.5851 193.546 28.4575 193.518 28.3295 193.494C23.3662 192.491 18.2064 193.393 13.8806 196.021C5.91552 201.03 1.82455 210.528 0.496791 219.832C-1.64247 234.804 3.09175 251.513 15.3889 260.355Z" fill="#F2F2F2"/>
<path d="M18.8809 236.355C19.1949 239.657 19.9898 242.897 21.2404 245.97C22.393 248.69 23.9466 251.222 25.8496 253.484C29.737 258.151 34.8772 261.66 40.4596 263.997C44.728 265.742 49.2003 266.942 53.7701 267.567C55.662 267.434 57.5405 267.277 59.4016 267.109C59.4128 267.106 59.4276 267.107 59.439 267.104C59.5285 267.095 59.6181 267.087 59.7037 267.082C60.0878 267.046 60.4721 267.01 60.8526 266.974L60.7627 267.145L60.4806 267.676C60.582 267.499 60.6833 267.325 60.7847 267.147C60.8145 267.093 60.848 267.04 60.8776 266.987C57.4516 263.58 54.8937 259.404 53.4182 254.807C51.9427 250.211 51.5925 245.328 52.3971 240.569C53.239 235.843 55.1881 231.383 58.0855 227.552C57.7044 227.436 57.3183 227.342 56.9277 227.259C55.8265 228.762 54.8607 230.358 54.0413 232.031C51.1014 237.994 50.1634 244.744 51.3664 251.281C52.4847 257.196 55.2708 262.67 59.3976 267.06C59.0362 267.035 58.6714 267.006 58.3143 266.973C51.5512 266.401 44.8019 264.95 38.6678 261.978C33.4244 259.499 28.8723 255.771 25.4123 251.123C21.6972 246.01 20.0602 239.859 19.779 233.607C19.4808 226.915 20.3509 220.105 21.8813 213.596C23.444 206.924 25.8189 200.467 28.9531 194.37C29.0232 194.232 29.0374 194.072 28.9927 193.924C28.9479 193.776 28.8478 193.65 28.7129 193.573C28.6005 193.498 28.4627 193.469 28.3294 193.494C28.2642 193.512 28.2038 193.543 28.1526 193.587C28.1014 193.631 28.0607 193.686 28.0337 193.747C27.647 194.5 27.2675 195.254 26.9025 196.016C23.8624 202.364 21.6243 209.064 20.2394 215.962C18.895 222.617 18.1774 229.578 18.8809 236.355Z" fill="white"/>
<path d="M340.041 230.415H161.157C159.312 230.413 157.543 229.68 156.238 228.378C154.934 227.076 154.2 225.311 154.198 223.469V6.94512C154.2 5.1038 154.934 3.33848 156.238 2.03647C157.543 0.734454 159.312 0.00207286 161.157 0H340.041C341.886 0.00207286 343.655 0.734454 344.959 2.03647C346.264 3.33848 346.998 5.1038 347 6.94512V223.469C346.998 225.311 346.264 227.076 344.959 228.378C343.655 229.68 341.886 230.413 340.041 230.415ZM161.157 0.817073C159.529 0.818911 157.968 1.46513 156.817 2.61396C155.666 3.7628 155.018 5.32043 155.016 6.94512V223.469C155.018 225.094 155.666 226.652 156.817 227.801C157.968 228.949 159.529 229.596 161.157 229.598H340.041C341.669 229.596 343.23 228.949 344.381 227.801C345.532 226.652 346.179 225.094 346.181 223.469V6.94512C346.179 5.32043 345.532 3.7628 344.381 2.61396C343.23 1.46513 341.669 0.818911 340.041 0.817073H161.157Z" fill="#3F3D56"/>
<path d="M346.591 16.9912H154.607V17.8083H346.591V16.9912Z" fill="#3F3D56"/>
<path d="M164.022 12.2561C165.831 12.2561 167.297 10.7928 167.297 8.98781C167.297 7.18278 165.831 5.71951 164.022 5.71951C162.214 5.71951 160.748 7.18278 160.748 8.98781C160.748 10.7928 162.214 12.2561 164.022 12.2561Z" fill="#3F3D56"/>
<path d="M174.256 12.2561C176.064 12.2561 177.531 10.7928 177.531 8.98781C177.531 7.18278 176.064 5.71951 174.256 5.71951C172.447 5.71951 170.981 7.18278 170.981 8.98781C170.981 10.7928 172.447 12.2561 174.256 12.2561Z" fill="#3F3D56"/>
<path d="M184.489 12.2561C186.298 12.2561 187.764 10.7928 187.764 8.98781C187.764 7.18278 186.298 5.71951 184.489 5.71951C182.681 5.71951 181.215 7.18278 181.215 8.98781C181.215 10.7928 182.681 12.2561 184.489 12.2561Z" fill="#3F3D56"/>
<path d="M312.312 49.4329H184.596C183.185 49.4329 181.831 48.8734 180.833 47.8774C179.835 46.8814 179.274 45.5305 179.274 44.122C179.274 42.7134 179.835 41.3625 180.833 40.3665C181.831 39.3705 183.185 38.811 184.596 38.811H312.312C313.723 38.811 315.077 39.3705 316.075 40.3665C317.073 41.3625 317.633 42.7134 317.633 44.122C317.633 45.5305 317.073 46.8814 316.075 47.8774C315.077 48.8734 313.723 49.4329 312.312 49.4329ZM184.596 39.628C183.402 39.628 182.256 40.1015 181.412 40.9443C180.568 41.7871 180.093 42.9301 180.093 44.122C180.093 45.3138 180.568 46.4568 181.412 47.2996C182.256 48.1424 183.402 48.6159 184.596 48.6159H312.312C313.506 48.6159 314.651 48.1424 315.496 47.2996C316.34 46.4568 316.815 45.3138 316.815 44.122C316.815 42.9301 316.34 41.7871 315.496 40.9443C314.651 40.1015 313.506 39.628 312.312 39.628H184.596Z" fill="#3F3D56"/>
<path d="M232.383 124.195H182.033C180.188 124.193 178.42 123.461 177.115 122.159C175.81 120.857 175.077 119.091 175.074 117.25V75.9878C175.077 74.1465 175.81 72.3812 177.115 71.0791C178.42 69.7771 180.188 69.0447 182.033 69.0427H232.383C234.228 69.0447 235.997 69.7771 237.301 71.0791C238.606 72.3812 239.34 74.1465 239.342 75.9878V117.25C239.34 119.091 238.606 120.857 237.301 122.159C235.997 123.461 234.228 124.193 232.383 124.195ZM182.033 69.8597C180.405 69.8616 178.845 70.5078 177.694 71.6566C176.543 72.8055 175.895 74.3631 175.893 75.9878V117.25C175.895 118.875 176.543 120.432 177.694 121.581C178.845 122.73 180.405 123.376 182.033 123.378H232.383C234.011 123.376 235.572 122.73 236.723 121.581C237.874 120.432 238.521 118.875 238.523 117.25V75.9878C238.521 74.3631 237.874 72.8055 236.723 71.6566C235.572 70.5078 234.011 69.8616 232.383 69.8597H182.033Z" fill="#3F3D56"/>
<path d="M319.164 71.0854H268.815C265.197 71.0854 262.265 74.0119 262.265 77.622V118.884C262.265 122.494 265.197 125.421 268.815 125.421H319.164C322.782 125.421 325.714 122.494 325.714 118.884V77.622C325.714 74.0119 322.782 71.0854 319.164 71.0854Z" fill="#F2F2F2"/>
<path d="M232.383 201H182.033C180.188 200.998 178.42 200.266 177.115 198.964C175.81 197.661 175.077 195.896 175.074 194.055V152.793C175.077 150.951 175.81 149.186 177.115 147.884C178.42 146.582 180.188 145.85 182.033 145.848H232.383C234.228 145.85 235.997 146.582 237.301 147.884C238.606 149.186 239.34 150.951 239.342 152.793V194.055C239.34 195.896 238.606 197.661 237.301 198.964C235.997 200.266 234.228 200.998 232.383 201ZM182.033 146.665C180.405 146.666 178.845 147.313 177.694 148.462C176.543 149.61 175.895 151.168 175.893 152.793V194.055C175.895 195.68 176.543 197.237 177.694 198.386C178.845 199.535 180.405 200.181 182.033 200.183H232.383C234.011 200.181 235.572 199.535 236.723 198.386C237.874 197.237 238.521 195.68 238.523 194.055V152.793C238.521 151.168 237.874 149.61 236.723 148.462C235.572 147.313 234.011 146.666 232.383 146.665H182.033Z" fill="#3F3D56"/>
<path d="M319.164 147.89H268.815C265.197 147.89 262.265 150.817 262.265 154.427V195.689C262.265 199.299 265.197 202.226 268.815 202.226H319.164C322.782 202.226 325.714 199.299 325.714 195.689V154.427C325.714 150.817 322.782 147.89 319.164 147.89Z" fill="#F2F2F2"/>
<path d="M194.679 114.216C194.67 114.216 194.661 114.215 194.652 114.215L188.925 114.003C188.746 113.998 188.576 113.928 188.445 113.807C188.313 113.686 188.231 113.522 188.211 113.345C187.817 109.835 186.195 91.9491 192.991 84.5152C193.952 83.4418 195.141 82.5956 196.472 82.0379C197.802 81.4802 199.24 81.2251 200.681 81.291C200.74 81.2947 200.798 81.2823 200.85 81.2553C200.902 81.2282 200.946 81.1874 200.976 81.1374L202.363 78.9631C202.439 78.8452 202.546 78.751 202.673 78.691C202.8 78.631 202.941 78.6076 203.08 78.6235C204.192 78.7576 209.858 79.3904 212.24 78.7019C212.38 78.6606 212.53 78.6615 212.67 78.7045C212.81 78.7475 212.934 78.8307 213.027 78.9437L214.848 81.1643C214.879 81.2045 214.92 81.2366 214.966 81.258C215.012 81.2794 215.063 81.2894 215.114 81.2872C216.04 81.2687 219.286 81.4476 222.128 84.6195C225.205 88.0542 228.38 95.8036 226.034 113.215C226.01 113.394 225.921 113.558 225.785 113.677C225.649 113.796 225.475 113.862 225.294 113.863H220.783C220.604 113.862 220.432 113.797 220.296 113.68C220.161 113.563 220.072 113.402 220.045 113.225L218.572 103.079C218.56 102.995 218.517 102.92 218.451 102.866C218.386 102.813 218.302 102.787 218.218 102.792C218.134 102.797 218.055 102.834 217.996 102.894C217.938 102.955 217.904 103.036 217.902 103.12L217.801 107.884C217.798 108.025 217.754 108.163 217.676 108.28C217.597 108.398 217.487 108.491 217.358 108.548C215.75 109.254 207.254 112.563 197.864 108.419C197.737 108.362 197.628 108.271 197.55 108.156C197.471 108.041 197.427 107.906 197.42 107.767L197.236 103.439C197.232 103.355 197.197 103.275 197.137 103.215C197.076 103.155 196.996 103.121 196.911 103.118C196.826 103.115 196.744 103.144 196.68 103.199C196.615 103.254 196.575 103.332 196.565 103.416L195.42 113.555C195.399 113.736 195.312 113.904 195.175 114.025C195.039 114.147 194.862 114.215 194.679 114.216Z" fill="#6C63FF"/>
<path d="M218.369 188.964H218.365L195.924 188.822C195.761 188.821 195.604 188.76 195.482 188.652C195.361 188.543 195.283 188.394 195.264 188.232L193.006 169.083C192.993 168.959 192.935 168.845 192.843 168.761C192.751 168.677 192.632 168.628 192.508 168.625C190.726 168.567 186.488 168.161 185.609 165.657C184.827 163.427 186.967 160.138 191.969 155.881C192.054 155.808 192.156 155.758 192.265 155.735C192.375 155.711 192.488 155.716 192.596 155.748C192.703 155.78 192.801 155.838 192.88 155.917C192.958 155.997 193.016 156.094 193.048 156.202L195.644 165.142C195.676 165.25 195.741 165.344 195.831 165.411C195.92 165.479 196.029 165.516 196.141 165.517L217.418 165.66C217.53 165.661 217.638 165.626 217.729 165.561C217.819 165.495 217.885 165.402 217.918 165.296L220.807 156.121C220.84 156.019 220.896 155.926 220.972 155.85C221.048 155.773 221.141 155.717 221.243 155.684C221.346 155.652 221.455 155.645 221.561 155.663C221.666 155.681 221.766 155.725 221.852 155.79C223.823 157.293 230.174 162.452 229.129 165.752C228.582 167.48 226.112 168.443 221.789 168.615C221.665 168.619 221.547 168.668 221.456 168.752C221.364 168.836 221.307 168.95 221.293 169.074L219.034 188.373C219.015 188.536 218.937 188.686 218.814 188.795C218.692 188.904 218.533 188.964 218.369 188.964Z" fill="#6C63FF"/>
<path d="M316.708 108.325C309.657 109.68 303.007 112.619 297.262 116.92C296.972 116.148 296.424 115.499 295.712 115.082C295.225 114.781 294.694 114.558 294.138 114.422C293.632 114.294 293.146 114.6 292.7 115.043C292.187 115.61 291.756 116.246 291.421 116.933C283.714 111.654 272.024 108.285 272.024 108.285V107.229C272.034 106.981 272.059 106.733 272.1 106.487C272.14 106.203 272.189 105.953 272.252 105.646C273.244 100.611 277.165 89.1053 277.165 89.1053H281.598L290.194 90.887L299.864 90.2964L309.604 88.2739L310.867 88.0099C312.973 89.6596 315.363 101.208 316.302 106.124C316.421 106.748 316.513 107.262 316.583 107.642C316.665 108.071 316.708 108.325 316.708 108.325Z" fill="white"/>
<path d="M290.255 159.01C290.255 159.01 288.196 159.524 285.002 168.157C281.808 176.79 280.677 187.944 280.677 187.944C280.677 187.944 278.881 190.979 286.546 191.182C286.546 191.182 285.93 193.186 290.255 192.879C294.58 192.571 293.957 192.574 293.957 192.574C293.957 192.574 296.738 190.826 297.974 191.134C299.21 191.442 299.982 191.546 301.32 192.675C302.658 193.805 306.935 193.345 306.986 192.472C307.021 192.044 307.021 191.613 306.986 191.185C306.986 191.185 313.526 191.597 312.29 186.868C311.054 182.14 310.024 174.379 310.024 174.379C310.024 174.379 306.678 159.219 302.865 159.013C299.051 158.807 290.255 159.01 290.255 159.01Z" fill="white"/>
<path d="M78.8566 144.457C85.6388 144.457 91.137 138.97 91.137 132.201C91.137 125.432 85.6388 119.945 78.8566 119.945C72.0743 119.945 66.5762 125.432 66.5762 132.201C66.5762 138.97 72.0743 144.457 78.8566 144.457Z" fill="#2F2E41"/>
<path d="M79.8879 144.48C85.4406 144.48 89.9419 139.988 89.9419 134.446C89.9419 128.904 85.4406 124.412 79.8879 124.412C74.3353 124.412 69.834 128.904 69.834 134.446C69.834 139.988 74.3353 144.48 79.8879 144.48Z" fill="#FFB8B8"/>
<path d="M118.178 164.966C118.018 165.126 117.871 165.299 117.739 165.482L97.4508 164.767L95.1303 160.424L88.105 163.062L91.4642 171.149C91.7356 171.803 92.212 172.35 92.8219 172.711C93.4319 173.071 94.1424 173.224 94.8468 173.146L117.805 170.631C118.338 171.32 119.069 171.831 119.901 172.095C120.732 172.36 121.624 172.365 122.459 172.111C123.294 171.857 124.031 171.355 124.573 170.673C125.115 169.99 125.436 169.159 125.493 168.29C125.55 167.421 125.341 166.556 124.893 165.808C124.445 165.061 123.78 164.467 122.986 164.106C122.192 163.745 121.307 163.634 120.448 163.788C119.589 163.941 118.797 164.352 118.178 164.966H118.178Z" fill="#FFB8B8"/>
<path d="M85.4023 166.967C85.1438 166.851 84.9133 166.681 84.7266 166.469C84.5399 166.256 84.4014 166.006 84.3206 165.734L81.4947 156.269C80.8811 154.958 80.8133 153.458 81.3063 152.097C81.7992 150.737 82.8127 149.627 84.1244 149.011C85.4361 148.395 86.9391 148.323 88.3038 148.811C89.6684 149.299 90.7834 150.308 91.4043 151.615L96.8782 159.882C97.0344 160.118 97.1378 160.385 97.1814 160.664C97.225 160.943 97.2077 161.229 97.1308 161.501C97.0538 161.773 96.919 162.026 96.7355 162.241C96.552 162.457 96.3242 162.63 96.0674 162.75L87.0443 166.955C86.7876 167.075 86.508 167.138 86.2246 167.14C85.9412 167.142 85.6608 167.083 85.4023 166.967Z" fill="#CCCCCC"/>
<path d="M105.385 263.068L109.792 260.673L102.635 242.566L96.1296 246.1L105.385 263.068Z" fill="#FFB8B8"/>
<path d="M103.477 262.242L112.157 257.526L112.158 257.526C112.884 257.131 113.681 256.883 114.504 256.796C115.326 256.709 116.158 256.784 116.951 257.018C117.745 257.252 118.484 257.639 119.127 258.158C119.771 258.677 120.305 259.317 120.701 260.042L120.799 260.221L106.586 267.943L103.477 262.242Z" fill="#2F2E41"/>
<path d="M56.8823 263.087H61.9005L64.2882 243.768L56.8811 243.769L56.8823 263.087Z" fill="#FFB8B8"/>
<path d="M55.6021 261.452L65.4852 261.452H65.4856C66.3127 261.452 67.1318 261.614 67.8959 261.93C68.6601 262.246 69.3544 262.709 69.9393 263.293C70.5241 263.877 70.9881 264.57 71.3046 265.332C71.6211 266.095 71.784 266.912 71.784 267.738V267.942L55.6023 267.943L55.6021 261.452Z" fill="#2F2E41"/>
<path d="M88.0669 177.344L89.7043 196.954L107.969 251.639C108.041 251.854 108.067 252.082 108.046 252.307C108.025 252.533 107.957 252.752 107.846 252.95C107.736 253.148 107.585 253.321 107.404 253.458C107.223 253.595 107.016 253.693 106.795 253.745L101.197 255.076C100.838 255.161 100.462 255.123 100.127 254.968C99.7933 254.813 99.5213 254.55 99.3554 254.221L76.0046 207.994C75.9285 207.844 75.8075 207.72 75.6583 207.641C75.5091 207.562 75.3389 207.53 75.1712 207.551C75.0034 207.573 74.8464 207.645 74.7215 207.759C74.5967 207.873 74.5102 208.022 74.4739 208.187L64.1978 254.908C64.1178 255.272 63.9156 255.597 63.6247 255.831C63.3338 256.064 62.9717 256.192 62.5985 256.192H57.3908C57.1739 256.192 56.9592 256.149 56.759 256.066C56.5589 255.982 56.3774 255.86 56.2251 255.706C56.0728 255.552 55.9528 255.369 55.8721 255.168C55.7914 254.967 55.7515 254.752 55.7548 254.535C56.232 222.14 54.6578 185.226 67.1902 179.387L69.2369 174.076L88.0669 177.344Z" fill="#2F2E41"/>
<path d="M68.6476 175.467L66.5372 162.729C66.1879 160.641 66.3711 158.498 67.0699 156.498C67.7687 154.498 68.9607 152.707 70.5359 151.288C72.0757 149.883 73.9452 148.887 75.9719 148.393C77.9987 147.898 80.1176 147.921 82.1333 148.459C82.2529 148.491 82.3726 148.524 82.4925 148.557C84.9726 149.266 87.175 150.717 88.8022 152.715C90.4293 154.713 91.4029 157.161 91.5913 159.729C91.9941 165.261 91.6337 173.286 87.6296 180.103L87.5518 180.235L68.6476 175.467Z" fill="#CCCCCC"/>
<path d="M89.8897 129.113C87.5922 130.694 84.8653 131.535 82.075 131.524C83.0703 132.212 84.2034 132.678 85.3963 132.887C81.6864 133.681 77.8521 133.703 74.1335 132.95C73.3069 132.818 72.5094 132.545 71.7758 132.142C71.4102 131.938 71.0917 131.66 70.841 131.326C70.5903 130.991 70.4129 130.607 70.3205 130.2C70.0734 128.791 71.1733 127.511 72.3164 126.648C74.0666 125.348 76.0846 124.452 78.2243 124.025C80.3641 123.598 82.5721 123.651 84.6887 124.181C86.0708 124.537 87.4553 125.14 88.353 126.247C89.2507 127.355 89.5166 129.063 88.6613 130.204L89.8897 129.113Z" fill="#2F2E41"/>
<path d="M78.695 119.884C79.8604 115.188 75.6833 109.97 70.8364 110.068C65.9188 110.167 62.2999 114.602 59.8123 118.837C57.3247 123.071 54.8525 127.872 50.2857 129.695C48.7744 130.299 47.1368 130.518 45.5196 130.334C43.9024 130.151 42.3562 129.569 41.0195 128.642C39.6829 127.715 38.5977 126.472 37.8611 125.023C37.1246 123.574 36.7597 121.966 36.7993 120.342C36.1862 125.487 37.0357 131.054 40.3602 135.033C43.6846 139.012 49.8706 140.806 54.3169 138.131C56.8564 136.604 58.4795 133.949 59.8177 131.309C61.1558 128.668 62.3465 125.884 64.3742 123.725C66.4018 121.566 69.537 120.133 72.3587 121.041C73.4788 121.402 74.4837 122.105 75.6409 122.318C76.7982 122.532 78.2551 121.983 78.4132 120.819L78.695 119.884Z" fill="#2F2E41"/>
<path d="M54.4629 205.041C54.0456 204.553 53.7407 203.979 53.5694 203.361C53.3982 202.742 53.365 202.094 53.472 201.461C53.5791 200.829 53.8238 200.227 54.189 199.699C54.5541 199.171 55.0309 198.729 55.5856 198.405L64.3069 159.391L73.1539 163.015L61.7993 200.225C62.2833 201.191 62.3954 202.301 62.1144 203.344C61.8333 204.387 61.1786 205.291 60.2743 205.885C59.3701 206.478 58.279 206.72 57.2079 206.565C56.1369 206.409 55.1602 205.867 54.4629 205.041H54.4629Z" fill="#FFB8B8"/>
<path d="M60.8516 164.988C60.7123 164.741 60.6279 164.468 60.6041 164.186C60.5803 163.904 60.6178 163.621 60.7138 163.355L64.0675 154.063C64.353 152.644 65.1904 151.396 66.3962 150.593C67.602 149.79 69.0778 149.497 70.5 149.778C71.9221 150.059 73.1745 150.891 73.9826 152.092C74.7907 153.294 75.0886 154.766 74.8108 156.186L74.3014 166.081C74.2868 166.364 74.2114 166.64 74.0804 166.89C73.9493 167.141 73.7656 167.361 73.5419 167.534C73.3181 167.708 73.0596 167.831 72.7837 167.896C72.5079 167.961 72.2214 167.965 71.9436 167.909L62.1804 165.95C61.9026 165.895 61.64 165.78 61.4107 165.614C61.1814 165.448 60.9906 165.234 60.8516 164.988Z" fill="#CCCCCC"/>
<path d="M132.307 160.612L132.162 160.592L132.709 156.62C132.793 156.011 132.631 155.392 132.258 154.902C131.885 154.412 131.333 154.089 130.722 154.005L122.289 152.848C121.678 152.765 121.059 152.926 120.568 153.298C120.076 153.67 119.753 154.222 119.669 154.831L116.668 176.623C116.584 177.233 116.746 177.851 117.118 178.341C117.491 178.831 118.044 179.154 118.655 179.238L127.087 180.395C127.698 180.479 128.317 180.317 128.809 179.945C129.3 179.573 129.623 179.022 129.707 178.412L131.772 163.42L131.917 163.44L132.307 160.612Z" fill="#3F3D56"/>
<path d="M130.457 155.171L129.407 155.027C129.439 155.151 129.44 155.282 129.409 155.407C129.379 155.532 129.318 155.648 129.232 155.744C129.146 155.84 129.038 155.914 128.917 155.958C128.796 156.003 128.665 156.017 128.537 155.999L123.93 155.367C123.802 155.35 123.68 155.301 123.576 155.225C123.471 155.15 123.387 155.05 123.33 154.934C123.273 154.819 123.246 154.691 123.25 154.562C123.255 154.433 123.291 154.308 123.356 154.196L122.375 154.062C122.159 154.032 121.94 154.045 121.73 154.1C121.519 154.155 121.322 154.251 121.149 154.382C120.975 154.513 120.83 154.677 120.72 154.865C120.61 155.052 120.538 155.259 120.508 155.474L117.65 176.23C117.62 176.445 117.633 176.664 117.688 176.874C117.743 177.084 117.839 177.281 117.971 177.454C118.102 177.627 118.267 177.772 118.454 177.882C118.642 177.991 118.85 178.063 119.065 178.092L127.147 179.201C127.582 179.261 128.023 179.146 128.373 178.881C128.723 178.616 128.953 178.223 129.013 177.789L131.872 157.033C131.932 156.599 131.816 156.159 131.551 155.809C131.286 155.46 130.892 155.23 130.457 155.171L130.457 155.171Z" fill="white"/>
<path d="M124.725 172.402C127.212 172.402 129.228 170.39 129.228 167.909C129.228 165.427 127.212 163.415 124.725 163.415C122.238 163.415 120.222 165.427 120.222 167.909C120.222 170.39 122.238 172.402 124.725 172.402Z" fill="#6C63FF"/>
<path d="M124.279 169.623C124.177 169.623 124.079 169.59 123.998 169.53L123.993 169.526L122.934 168.717C122.885 168.68 122.844 168.633 122.813 168.58C122.782 168.526 122.761 168.468 122.753 168.406C122.745 168.345 122.749 168.283 122.765 168.223C122.781 168.164 122.808 168.108 122.846 168.059C122.884 168.01 122.931 167.969 122.984 167.938C123.038 167.907 123.097 167.887 123.158 167.879C123.219 167.871 123.282 167.875 123.342 167.891C123.401 167.907 123.457 167.935 123.506 167.972L124.192 168.497L125.811 166.389C125.849 166.34 125.896 166.299 125.949 166.268C126.003 166.237 126.062 166.217 126.123 166.209C126.184 166.201 126.246 166.205 126.306 166.221C126.366 166.237 126.421 166.264 126.47 166.302L126.46 166.316L126.471 166.302C126.57 166.378 126.634 166.49 126.651 166.613C126.667 166.736 126.633 166.861 126.558 166.96L124.653 169.44C124.609 169.497 124.552 169.543 124.487 169.575C124.422 169.607 124.351 169.623 124.279 169.623Z" fill="white"/>
<path d="M166.225 268H10.2643C10.1558 268 10.0516 267.957 9.97488 267.88C9.89811 267.804 9.85498 267.7 9.85498 267.591C9.85498 267.483 9.89811 267.379 9.97488 267.303C10.0516 267.226 10.1558 267.183 10.2643 267.183H166.225C166.334 267.183 166.438 267.226 166.515 267.303C166.592 267.379 166.635 267.483 166.635 267.591C166.635 267.7 166.592 267.804 166.515 267.88C166.438 267.957 166.334 268 166.225 268Z" fill="#3F3D56"/>
</g>
<defs>
<clipPath id="clip0">
<rect width="347" height="268" fill="white"/>
</clipPath>
</defs>
</svg>
